<?xml version="1.0" encoding="UTF-8" standalone="no"?>
<svg
   xmlns:dc="http://purl.org/dc/elements/1.1/"
   xmlns:cc="http://creativecommons.org/ns#"
   xmlns:rdf="http://www.w3.org/1999/02/22-rdf-syntax-ns#"
   xmlns:svg="http://www.w3.org/2000/svg"
   xmlns="http://www.w3.org/2000/svg"
   viewBox="0 0 1426.8533 210.02667"
   height="210.02667"
   width="1426.8533"
   xml:space="preserve"
   id="svg2"
   version="1.1"><metadata
     id="metadata8"><rdf:RDF><cc:Work
         rdf:about=""><dc:format>image/svg+xml</dc:format><dc:type
           rdf:resource="http://purl.org/dc/dcmitype/StillImage" /></cc:Work></rdf:RDF></metadata><defs
     id="defs6" /><g
     transform="matrix(1.3333333,0,0,-1.3333333,0,210.02667)"
     id="g10"><g
       transform="scale(0.1)"
       id="g12"><path
         id="path14"
         style="fill:#df4456;fill-opacity:1;fill-rule:nonzero;stroke:none"
         d="m 1734.57,1167.31 v 407.52 h -277.21 v -228.26 l 374.82,-179.26 h -97.61" /><path
         id="path16"
         style="fill:#df4456;fill-opacity:1;fill-rule:nonzero;stroke:none"
         d="M 1959.27,918.309 1020.07,1367.51 80.8711,918.309 0,1087.36 1020.07,1575.22 2040.14,1087.36 1959.27,918.309" /><path
         id="path18"
         style="fill:#df4456;fill-opacity:1;fill-rule:nonzero;stroke:none"
         d="M 777.195,0 774.742,456.23 553.379,84.8516 H 445.168 L 225.047,443.941 V 0 H 0 V 860.828 H 200.438 L 502.965,364.02 798.105,860.828 H 998.547 L 1001.01,0 H 777.195" /><path
         id="path20"
         style="fill:#df4456;fill-opacity:1;fill-rule:nonzero;stroke:none"
         d="m 1738.85,635.781 c -25.42,22.129 -63.15,33.196 -113.14,33.196 H 1490.44 V 416.891 h 135.27 c 49.99,0 87.72,10.859 113.14,32.578 25.4,21.722 38.12,52.66 38.12,92.859 0,40.156 -12.72,71.317 -38.12,93.453 z M 1623.25,228.73 H 1490.44 V 0 h -243.49 v 860.828 h 393.52 c 77.88,0 145.51,-12.922 202.9,-38.742 57.38,-25.82 101.66,-62.719 132.82,-110.68 31.15,-47.957 46.73,-104.336 46.73,-169.078 0,-62.316 -14.57,-116.637 -43.66,-162.949 -29.11,-46.328 -70.71,-82.598 -124.82,-108.828 L 2040.14,0 h -260.71 l -156.18,228.73" /><path
         id="path22"
         style="fill:#4285f4;fill-opacity:1;fill-rule:nonzero;stroke:none"
         d="m 2763.4,635.781 c -25.42,22.129 -63.14,33.196 -113.13,33.196 H 2515 V 416.891 h 135.27 c 49.99,0 87.71,10.859 113.13,32.578 25.4,21.722 38.12,52.66 38.12,92.859 0,40.156 -12.72,71.317 -38.12,93.453 z M 2647.8,228.73 H 2515 V 0 h -243.49 v 860.828 h 393.51 c 77.88,0 145.51,-12.922 202.91,-38.742 57.37,-25.82 101.65,-62.719 132.82,-110.68 31.15,-47.957 46.73,-104.336 46.73,-169.078 0,-62.316 -14.57,-116.637 -43.67,-162.949 C 2974.71,333.051 2933.1,296.781 2879,270.551 L 3064.69,0 h -260.7 L 2647.8,228.73" /><path
         id="path24"
         style="fill:#4285f4;fill-opacity:1;fill-rule:nonzero;stroke:none"
         d="M 3946.4,188.16 V 0 h -691.11 v 860.828 h 675.13 V 672.68 H 3496.31 V 527.559 h 382.46 V 345.551 H 3496.31 V 188.16 h 450.09" /><path
         id="path26"
         style="fill:#4285f4;fill-opacity:1;fill-rule:nonzero;stroke:none"
         d="m 4647.36,449.469 c 25.4,21.722 38.11,52.66 38.11,92.859 0,40.156 -12.71,71.317 -38.11,93.453 -25.43,22.129 -63.14,33.196 -113.14,33.196 H 4398.95 V 416.891 h 135.27 c 50,0 87.71,10.859 113.14,32.578 z m 104.52,372.617 c 57.38,-25.82 101.66,-62.719 132.82,-110.68 31.15,-47.957 46.73,-104.336 46.73,-169.078 0,-64.789 -15.58,-120.949 -46.73,-168.488 -31.16,-47.551 -75.44,-84.238 -132.82,-110.059 -57.39,-25.832 -125.02,-38.742 -202.9,-38.742 H 4398.95 V 0 h -243.48 v 860.828 h 393.51 c 77.88,0 145.51,-12.922 202.9,-38.742" /><path
         id="path28"
         style="fill:#4285f4;fill-opacity:1;fill-rule:nonzero;stroke:none"
         d="M 5585.66,346.789 5474.99,622.246 5364.31,346.789 Z m 71.33,-179.551 h -364 L 5225.35,0 h -248.41 l 379.99,860.828 h 239.8 L 5977.95,0 h -253.31 l -67.65,167.238" /><path
         id="path30"
         style="fill:#4285f4;fill-opacity:1;fill-rule:nonzero;stroke:none"
         d="m 6120.6,860.828 h 243.49 V 0 H 6120.6 v 860.828" /><path
         id="path32"
         style="fill:#4285f4;fill-opacity:1;fill-rule:nonzero;stroke:none"
         d="m 7103.15,635.781 c -25.42,22.129 -63.14,33.196 -113.13,33.196 H 6854.74 V 416.891 h 135.28 c 49.99,0 87.71,10.859 113.13,32.578 25.4,21.722 38.12,52.66 38.12,92.859 0,40.156 -12.72,71.317 -38.12,93.453 z M 6987.55,228.73 H 6854.74 V 0 h -243.48 v 860.828 h 393.51 c 77.88,0 145.51,-12.922 202.9,-38.742 57.38,-25.82 101.66,-62.719 132.82,-110.68 31.16,-47.957 46.73,-104.336 46.73,-169.078 0,-62.316 -14.57,-116.637 -43.66,-162.949 -29.1,-46.328 -70.71,-82.598 -124.81,-108.828 L 7404.44,0 h -260.7 l -156.19,228.73" /><path
         id="path34"
         style="fill:#4285f4;fill-opacity:1;fill-rule:nonzero;stroke:none"
         d="M 8372.24,0 8369.79,456.23 8148.43,84.8516 H 8040.21 L 7820.09,443.941 V 0 h -225.04 v 860.828 h 200.43 l 302.53,-496.808 295.15,496.808 h 200.43 L 8596.06,0 h -223.82" /><path
         id="path36"
         style="fill:#4285f4;fill-opacity:1;fill-rule:nonzero;stroke:none"
         d="M 9347.43,346.789 9236.74,622.246 9126.08,346.789 Z m 71.32,-179.551 h -364 L 8987.11,0 H 8738.7 l 379.99,860.828 h 239.8 L 9739.71,0 h -253.32 l -67.64,167.238" /><path
         id="path38"
         style="fill:#4285f4;fill-opacity:1;fill-rule:nonzero;stroke:none"
         d="M 10701.4,860.828 V 0 h -200.5 l -380,458.699 V 0 h -238.53 v 860.828 h 200.43 l 380,-458.699 v 458.699 h 238.6" /></g></g></svg>